0.02	0
0.144	1.06268e-28
0.268	5.61714e-17
0.392	3.75238e-13
0.516	2.01493e-11
0.64	1.74687e-10
0.764	7.86382e-10
0.888	2.00406e-09
1.012	4.00165e-09
1.136	5.58148e-09
1.26	7.75832e-09
1.384	1.11134e-08
1.508	1.53263e-08
1.632	1.74536e-08
1.756	2.02015e-08
1.88	2.36887e-08
2.004	2.63628e-08
2.128	2.90077e-08
2.252	3.0468e-08
2.376	3.38482e-08
2.5	1.84427e-08
