7.01983e-55	6.84624e-11	8.53336e-08	3.32262e-07	8.3285e-07	1.3855e-06	1.59365e-06	2.5045e-06	2.51656e-06	3.08285e-06	3.75509e-06	3.91212e-06	4.41563e-06	5.13785e-06	5.66789e-06	5.90161e-06	6.60144e-06	9.88196e-06	8.10726e-06	8.24059e-06	4.44967e-06	
2.50316e-54	1.54673e-10	9.97583e-08	4.47736e-07	1.00965e-06	1.92878e-06	2.58915e-06	3.5584e-06	3.10451e-06	4.32771e-06	4.19238e-06	5.45727e-06	5.19099e-06	6.18754e-06	6.29366e-06	8.52626e-06	7.71767e-06	1.31295e-05	9.9693e-06	9.8303e-06	5.35329e-06	
8.49654e-54	2.76417e-10	1.13383e-07	5.37837e-07	1.52413e-06	1.74511e-06	2.83806e-06	3.2586e-06	3.38553e-06	3.83362e-06	4.56199e-06	4.89349e-06	5.79618e-06	6.82791e-06	6.65445e-06	8.32696e-06	8.40881e-06	1.00801e-05	1.20596e-05	1.05591e-05	5.24244e-06	
2.73959e-53	4.05171e-10	1.17178e-07	1.72163e-06	1.28171e-06	1.91189e-06	2.7406e-06	3.53276e-06	3.64099e-06	6.60014e-06	5.11335e-06	5.21675e-06	6.26109e-06	7.9038e-06	7.20188e-06	9.11216e-06	1.04226e-05	9.03653e-06	1.08994e-05	1.10846e-05	5.6591e-06	
8.37341e-53	4.70951e-10	1.28928e-07	5.18482e-07	1.37969e-06	1.9675e-06	3.01257e-06	3.55589e-06	4.00931e-06	4.56794e-06	5.56117e-06	5.71657e-06	6.62139e-06	1.05814e-05	7.6002e-06	1.01889e-05	9.0465e-06	9.23534e-06	1.1036e-05	1.13551e-05	6.1843e-06	
2.42089e-52	1.18439e-10	1.49097e-07	6.4815e-07	1.41383e-06	2.2355e-06	3.19793e-06	3.31331e-06	4.31941e-06	4.6358e-06	5.65786e-06	5.96281e-06	6.70824e-06	7.84236e-06	8.22689e-06	9.79495e-06	9.859e-06	9.46934e-06	1.16934e-05	1.17868e-05	6.61534e-06	
6.60669e-52	1.11102e-10	1.1697e-07	5.31852e-07	1.50402e-06	2.35739e-06	2.99999e-06	3.38661e-06	4.65152e-06	4.81768e-06	5.68589e-06	5.91084e-06	7.11258e-06	8.40262e-06	8.71758e-06	1.00772e-05	1.32801e-05	9.78053e-06	1.16874e-05	1.20741e-05	7.25245e-06	
1.69832e-51	3.20671e-10	9.0332e-08	4.73986e-07	1.59269e-06	2.18689e-06	2.76831e-06	3.64063e-06	5.32038e-06	5.08407e-06	5.86827e-06	6.10402e-06	7.49079e-06	7.73314e-06	8.17418e-06	9.79606e-06	1.05627e-05	1.02421e-05	1.21131e-05	1.17612e-05	7.38325e-06	
4.10376e-51	2.8089e-10	1.13163e-07	4.45213e-07	1.59204e-06	2.23859e-06	2.72382e-06	3.24777e-06	6.15005e-06	6.42494e-06	5.66586e-06	6.2135e-06	7.31505e-06	7.49863e-06	8.0355e-06	9.51263e-06	9.19827e-06	1.19528e-05	1.20949e-05	1.17833e-05	7.586e-06	
9.30248e-51	3.25103e-10	7.24444e-08	4.43941e-07	1.60911e-06	2.17281e-06	2.79407e-06	3.46479e-06	5.69263e-06	4.68083e-06	5.21212e-06	6.39822e-06	7.11225e-06	7.51217e-06	8.23691e-06	1.03174e-05	9.02689e-06	1.60367e-05	1.31665e-05	1.19795e-05	7.35486e-06	
1.97434e-50	1.64046e-10	5.8739e-08	4.42745e-07	1.17916e-06	2.00697e-06	2.84432e-06	3.53987e-06	5.88125e-06	4.38616e-06	4.95137e-06	6.40646e-06	7.03556e-06	7.43015e-06	8.23267e-06	9.29785e-06	9.46674e-06	1.04867e-05	1.23498e-05	1.19576e-05	7.0811e-06	
3.91599e-50	1.06826e-09	6.53291e-08	4.16586e-07	1.12346e-06	2.06393e-06	3.77978e-06	3.53297e-06	4.23659e-06	4.37065e-06	4.96535e-06	6.16206e-06	7.19956e-06	7.24375e-06	7.97278e-06	8.69256e-06	1.03341e-05	1.075e-05	1.22969e-05	1.20401e-05	6.6844e-06	
7.24601e-50	9.62386e-10	6.09125e-08	4.82301e-07	1.01991e-06	1.88591e-06	2.61917e-06	3.33818e-06	4.05689e-06	4.61559e-06	5.47566e-06	6.04255e-06	8.2973e-06	6.83249e-06	8.26259e-06	8.49564e-06	9.21543e-06	9.97715e-06	1.1342e-05	1.13854e-05	6.28978e-06	
1.24878e-49	1.27495e-10	4.17262e-08	3.3452e-07	9.55282e-07	1.8753e-06	2.68348e-06	3.31826e-06	4.15136e-06	5.13078e-06	5.56852e-06	5.87949e-06	7.24789e-06	6.5566e-06	9.40711e-06	8.59422e-06	8.66087e-06	9.40468e-06	1.0986e-05	1.1096e-05	6.08205e-06	
2.0015e-49	2.10051e-10	4.59023e-08	3.85831e-07	9.18043e-07	1.93909e-06	2.61697e-06	2.89166e-06	4.7345e-06	4.66879e-06	4.97954e-06	5.66513e-06	7.14134e-06	6.56967e-06	7.96452e-06	8.1178e-06	8.51299e-06	9.12739e-06	1.0694e-05	1.07654e-05	6.51883e-06	
2.97947e-49	2.54542e-09	7.53387e-08	3.85326e-07	8.9623e-07	2.02574e-06	2.47141e-06	2.80496e-06	3.80145e-06	4.31076e-06	4.75099e-06	5.54302e-06	6.93955e-06	8.98273e-06	7.18919e-06	7.76574e-06	8.92603e-06	9.9139e-06	1.07196e-05	1.02888e-05	7.81678e-06	
4.11474e-49	1.47859e-09	6.58166e-08	3.42886e-07	9.5476e-07	1.83039e-06	2.62401e-06	2.78796e-06	3.59646e-06	4.2775e-06	4.6211e-06	6.23114e-06	6.01992e-06	6.68746e-06	6.86646e-06	8.01084e-06	9.05666e-06	8.97668e-06	1.02433e-05	9.91927e-06	5.92413e-06	
5.26694e-49	1.75801e-10	4.62341e-08	2.97749e-07	8.32465e-07	1.7036e-06	2.29268e-06	2.72465e-06	3.57875e-06	4.10019e-06	4.44527e-06	5.03133e-06	5.63619e-06	6.3068e-06	6.45625e-06	7.24531e-06	8.54071e-06	1.4846e-05	9.81584e-06	9.49709e-06	5.5629e-06	
6.24408e-49	5.60549e-11	5.45412e-08	4.63921e-07	8.29887e-07	1.65224e-06	2.20606e-06	2.72845e-06	4.02159e-06	4.21148e-06	4.13574e-06	4.85214e-06	5.52629e-06	7.63375e-06	6.2216e-06	6.85978e-06	7.97792e-06	8.84271e-06	9.85907e-06	9.95769e-06	5.0668e-06	
6.85258e-49	2.98678e-11	3.73089e-08	2.38065e-07	8.25154e-07	1.48704e-06	2.14813e-06	2.90848e-06	3.5285e-06	4.23509e-06	4.07449e-06	5.21158e-06	5.95473e-06	6.65114e-06	5.97951e-06	6.47095e-06	7.32529e-06	8.30289e-06	8.61038e-06	8.65703e-06	4.59001e-06	
6.95976e-49	2.16774e-11	3.31237e-08	2.10147e-07	7.548e-07	1.34734e-06	2.17214e-06	2.88345e-06	3.28207e-06	3.46413e-06	3.98427e-06	4.72901e-06	5.52552e-06	6.16014e-06	5.8047e-06	6.37147e-06	6.71564e-06	7.55403e-06	8.08764e-06	8.28439e-06	4.23074e-06	
6.54135e-49	4.16518e-11	2.81633e-08	1.88967e-07	6.85408e-07	1.26555e-06	2.24557e-06	2.4579e-06	2.93382e-06	3.21672e-06	3.83769e-06	4.56003e-06	5.8403e-06	5.49407e-06	5.73546e-06	6.35696e-06	6.21482e-06	6.70986e-06	7.53423e-06	8.18996e-06	4.0417e-06	
5.69056e-49	1.06905e-10	6.01089e-08	1.58503e-07	6.63494e-07	1.23816e-06	2.10992e-06	2.37415e-06	3.22902e-06	3.05959e-06	3.49917e-06	4.59552e-06	6.05591e-06	4.72734e-06	5.69269e-06	6.2366e-06	5.90883e-06	6.22338e-06	7.07608e-06	8.18954e-06	4.1595e-06	
4.58393e-49	4.25385e-11	1.58931e-08	1.44195e-07	6.30382e-07	1.24262e-06	2.05104e-06	2.18265e-06	2.92785e-06	2.94746e-06	3.47924e-06	4.4611e-06	5.13524e-06	4.48467e-06	5.47598e-06	5.71852e-06	5.67336e-06	5.94796e-06	6.82387e-06	7.77896e-06	4.37362e-06	
3.42133e-49	8.79488e-12	1.34372e-08	1.8926e-07	5.29013e-07	1.01797e-06	1.9533e-06	2.34951e-06	2.48127e-06	2.85489e-06	3.32092e-06	4.26035e-06	5.58148e-06	4.35885e-06	5.22008e-06	5.53192e-06	5.45097e-06	5.99748e-06	6.69315e-06	6.78279e-06	3.67695e-06	
2.36809e-49	3.31043e-12	1.47101e-08	1.62308e-07	4.67512e-07	9.25843e-07	1.62634e-06	2.36259e-06	2.47266e-06	2.85154e-06	2.88844e-06	3.83336e-06	4.44676e-06	4.20658e-06	5.78441e-06	5.46624e-06	5.17116e-06	8.15739e-06	6.24016e-06	6.41312e-06	3.39768e-06	
1.52162e-49	2.53449e-12	1.52697e-08	2.06739e-07	4.4182e-07	9.15199e-07	1.49183e-06	2.03832e-06	2.20843e-06	2.89541e-06	2.77064e-06	3.71192e-06	4.45621e-06	4.01586e-06	5.12845e-06	4.95114e-06	4.86212e-06	5.48865e-06	5.62524e-06	6.52044e-06	3.24629e-06	
9.08786e-50	2.63088e-12	1.82074e-08	1.97227e-07	4.23518e-07	1.08217e-06	1.39709e-06	1.88275e-06	1.95035e-06	2.89507e-06	2.72658e-06	3.61536e-06	4.0765e-06	3.71609e-06	4.80692e-06	4.54913e-06	4.58692e-06	5.15171e-06	5.12277e-06	7.01138e-06	3.00809e-06	
5.0522e-50	2.58912e-12	2.07565e-08	1.03382e-07	4.62644e-07	8.8735e-07	1.26239e-06	1.73657e-06	1.86343e-06	2.95352e-06	2.72461e-06	3.42466e-06	3.75401e-06	3.64145e-06	4.39561e-06	5.54088e-06	4.35572e-06	4.88378e-06	4.76565e-06	6.04074e-06	2.79815e-06	
2.61845e-50	2.12349e-12	1.89915e-08	9.8946e-08	5.44398e-07	8.21447e-07	1.18343e-06	1.56294e-06	1.7951e-06	2.62939e-06	2.80743e-06	3.06872e-06	3.88005e-06	3.60152e-06	4.07334e-06	4.7948e-06	4.19185e-06	4.7597e-06	4.46139e-06	5.84009e-06	2.61975e-06	
1.26735e-50	1.60184e-12	2.0683e-08	9.59519e-08	4.51962e-07	7.51915e-07	1.15522e-06	1.46549e-06	1.65883e-06	3.08184e-06	2.52237e-06	2.84409e-06	3.38283e-06	3.94559e-06	4.09354e-06	3.8973e-06	4.0192e-06	4.37279e-06	4.18827e-06	4.98049e-06	2.44792e-06	
5.73887e-51	1.45867e-12	2.24459e-08	8.80489e-08	6.8453e-07	6.91977e-07	1.23747e-06	1.42782e-06	1.58943e-06	2.47667e-06	2.29065e-06	2.67802e-06	3.16046e-06	3.27822e-06	4.73432e-06	3.50162e-06	3.71143e-06	4.02987e-06	3.9458e-06	4.44282e-06	2.29431e-06	
2.43594e-51	1.54293e-12	1.73695e-08	8.05383e-08	3.87271e-07	6.9196e-07	1.19205e-06	1.44213e-06	1.55028e-06	2.24503e-06	2.22375e-06	2.52084e-06	3.02208e-06	2.81227e-06	3.80774e-06	3.25585e-06	3.43966e-06	3.65921e-06	3.73165e-06	4.09316e-06	2.1668e-06	
9.71137e-52	1.1076e-12	2.14134e-08	7.21295e-08	3.07445e-07	6.57235e-07	1.11929e-06	1.48581e-06	1.49911e-06	1.84474e-06	2.39661e-06	2.40603e-06	2.65694e-06	2.63278e-06	3.25447e-06	3.12669e-06	3.23734e-06	3.43728e-06	3.54918e-06	3.85161e-06	2.06105e-06	
3.64384e-52	6.26467e-13	7.44834e-09	7.10407e-08	2.76271e-07	5.61909e-07	1.11367e-06	1.37153e-06	1.42425e-06	1.74485e-06	2.45132e-06	2.38487e-06	2.43652e-06	2.50157e-06	3.19587e-06	3.15483e-06	3.12245e-06	3.33258e-06	3.40283e-06	3.70904e-06	1.9639e-06	
1.28946e-52	4.23074e-13	5.49149e-09	9.43399e-08	3.58289e-07	4.99213e-07	1.042e-06	1.92922e-06	1.35244e-06	1.75666e-06	2.46757e-06	2.30701e-06	2.35356e-06	2.383e-06	3.23437e-06	2.91437e-06	3.03807e-06	3.46131e-06	3.27462e-06	3.61684e-06	1.8688e-06	
4.31267e-53	4.8376e-13	4.28205e-09	1.00143e-07	2.17441e-07	4.69335e-07	9.69271e-07	1.16655e-06	1.29902e-06	1.75488e-06	2.03447e-06	2.17669e-06	2.43344e-06	2.26502e-06	3.39382e-06	2.68611e-06	2.85649e-06	3.39654e-06	3.1301e-06	3.47977e-06	1.77414e-06	
1.36612e-53	8.00988e-13	3.65015e-09	5.9242e-08	2.02429e-07	4.59515e-07	9.13868e-07	1.02692e-06	1.23835e-06	1.49347e-06	1.75658e-06	2.12089e-06	2.49506e-06	2.16787e-06	2.95603e-06	2.81168e-06	2.67141e-06	3.05096e-06	2.98514e-06	3.37509e-06	1.67793e-06	
4.10731e-54	1.08107e-12	3.85783e-09	5.4045e-08	2.0294e-07	4.6454e-07	8.26277e-07	9.3945e-07	1.18109e-06	1.36132e-06	1.63568e-06	2.18039e-06	2.18269e-06	2.10744e-06	2.56954e-06	2.8162e-06	2.51715e-06	3.18487e-06	2.83385e-06	3.29267e-06	1.58688e-06	
1.17451e-54	9.99735e-13	3.96835e-09	5.85814e-08	1.86822e-07	4.67704e-07	7.16812e-07	9.08456e-07	1.15144e-06	1.30949e-06	1.49658e-06	2.14344e-06	2.00619e-06	2.08449e-06	2.24773e-06	2.35238e-06	2.37941e-06	3.32594e-06	2.68622e-06	3.15384e-06	1.50551e-06	
3.201e-55	6.40586e-13	3.25237e-09	6.94313e-08	1.76554e-07	4.0717e-07	6.92759e-07	8.61906e-07	1.13386e-06	1.33225e-06	1.3895e-06	2.03785e-06	1.89819e-06	2.48074e-06	2.20391e-06	2.18436e-06	2.25759e-06	2.59065e-06	2.52886e-06	2.87441e-06	1.43187e-06	
8.33149e-56	3.15826e-13	2.97029e-09	5.53765e-08	1.63959e-07	3.78065e-07	6.45116e-07	7.931e-07	1.11214e-06	1.6915e-06	1.32437e-06	1.87249e-06	1.77747e-06	2.17301e-06	2.18482e-05	2.04961e-06	2.17706e-06	2.36296e-06	2.36384e-06	2.51375e-06	1.36354e-06	
2.07505e-56	1.37044e-13	4.03356e-09	3.84849e-08	1.6923e-07	3.42015e-07	5.78564e-07	7.49804e-07	1.26233e-06	2.0167e-06	1.27746e-06	1.64672e-06	1.65507e-06	1.90784e-06	1.88895e-06	1.89943e-06	2.38628e-06	2.24949e-06	2.2279e-06	2.28256e-06	1.29688e-06	
4.955e-57	6.25121e-14	9.54021e-09	3.43386e-08	1.81222e-07	3.12824e-07	5.62386e-07	7.12455e-07	1.05157e-06	1.45702e-06	1.22725e-06	1.48913e-06	1.55481e-06	1.83415e-06	1.72665e-06	1.77809e-06	3.77867e-06	2.11239e-06	2.1173e-06	2.13899e-06	1.2293e-06	
1.13652e-57	4.31422e-14	6.18741e-09	3.33123e-08	3.67999e-07	3.01183e-07	5.2758e-07	6.64658e-07	8.94194e-07	1.52631e-06	1.21712e-06	1.38633e-06	1.49728e-06	1.68609e-06	1.83305e-06	1.71188e-06	1.95879e-06	1.94663e-06	2.01864e-06	2.03478e-06	1.15881e-06	
2.50854e-58	6.0352e-14	5.96827e-09	3.29963e-08	1.47431e-07	2.993e-07	5.04862e-07	6.28458e-07	8.59392e-07	1.37638e-06	1.36086e-06	1.28357e-06	1.55126e-06	1.57454e-06	1.7399e-06	1.72233e-06	1.80506e-06	1.84046e-06	1.93081e-06	1.91612e-06	1.08611e-06	
5.33744e-59	1.17812e-13	6.78927e-09	1.48743e-07	1.22075e-07	3.03626e-07	4.9273e-07	6.22123e-07	9.31334e-07	1.22825e-06	2.11881e-06	1.1915e-06	1.85381e-06	1.51074e-06	1.53207e-06	1.6466e-06	1.7998e-06	1.81731e-06	1.84409e-06	1.77974e-06	1.01748e-06	
1.09659e-59	2.1797e-13	5.16325e-09	4.56574e-08	1.25903e-07	2.52621e-07	4.66523e-07	5.8275e-07	9.22817e-07	1.31411e-06	1.34032e-06	1.11096e-06	1.70761e-06	1.4769e-06	1.50815e-06	1.52203e-06	1.72742e-06	2.23035e-06	1.75343e-06	1.66064e-06	9.58202e-07	
2.17902e-60	3.2571e-13	6.17197e-09	3.16977e-08	1.40061e-07	2.11161e-07	4.43694e-07	5.27045e-07	8.18254e-07	1.19388e-06	1.166e-06	1.04984e-06	1.41284e-06	1.56629e-06	1.37475e-06	1.39343e-06	1.58844e-06	2.79941e-06	1.65386e-06	1.56216e-06	9.09257e-07	
4.19424e-61	3.69357e-13	3.3005e-09	2.5539e-08	2.15632e-07	1.90671e-07	4.59648e-07	4.94792e-07	7.92086e-07	1.02229e-06	9.771e-07	9.9099e-07	1.19676e-06	7.05205e-06	1.3268e-06	1.27425e-06	1.4765e-06	1.65073e-06	1.54363e-06	1.48056e-06	8.69128e-07	
7.83196e-62	3.19561e-13	1.64533e-09	2.1378e-08	1.51739e-07	1.79114e-07	5.76067e-07	4.70004e-07	7.54111e-07	9.85933e-07	8.51315e-07	9.25071e-07	1.12108e-06	1.54117e-06	1.18992e-06	1.16967e-06	1.36426e-06	1.4638e-06	1.43165e-06	1.41343e-06	8.42697e-07	
1.42079e-62	2.28749e-13	1.09595e-09	1.92455e-08	1.63227e-07	1.69504e-07	6.39768e-07	4.42262e-07	6.89245e-07	1.05166e-06	7.81774e-07	8.62821e-07	1.08112e-06	1.2706e-06	1.10002e-06	1.07966e-06	1.28015e-06	1.35795e-06	1.32103e-06	1.35623e-06	8.58935e-07	
2.50736e-63	1.66021e-13	9.02816e-10	1.7821e-08	9.75294e-08	1.59882e-07	4.87018e-07	4.22702e-07	6.40885e-07	8.58451e-07	7.51703e-07	8.09517e-07	1.02012e-06	1.16387e-06	1.05716e-06	1.00251e-06	1.30609e-06	1.27804e-06	1.21966e-06	1.30149e-06	1.01696e-06	
4.31021e-64	1.71276e-13	8.19319e-10	1.66313e-08	7.56765e-08	1.5157e-07	3.70972e-07	4.12571e-07	6.4317e-07	7.05097e-07	7.94951e-07	7.66659e-07	9.83878e-07	1.06513e-06	1.02477e-06	9.3553e-07	1.93869e-06	1.2131e-06	1.13152e-06	1.24946e-06	1.06948e-06	
7.22619e-65	2.77304e-13	8.05935e-10	1.7665e-08	6.55569e-08	1.4516e-07	3.6553e-07	3.85608e-07	6.27239e-07	6.4524e-07	1.03231e-06	7.35788e-07	9.36914e-07	9.57365e-07	9.87014e-07	8.77092e-07	1.34259e-06	1.152e-06	1.05625e-06	1.20881e-06	7.7678e-07	
1.18293e-65	5.29958e-13	8.96966e-10	2.65814e-08	6.14267e-08	1.42753e-07	3.83519e-07	3.6106e-07	5.71234e-07	6.12111e-07	7.69036e-07	7.16051e-07	8.69946e-07	8.75205e-07	9.44681e-07	8.27208e-07	1.07328e-06	1.08161e-06	9.9545e-07	1.17487e-06	6.55658e-07	
1.89291e-66	9.39306e-13	1.18507e-09	9.8831e-08	6.43999e-08	1.49177e-07	3.20975e-07	3.40999e-07	5.57933e-07	5.88888e-07	6.65878e-07	6.9891e-07	8.15539e-07	8.12826e-07	9.011e-07	7.86767e-07	1.00141e-06	1.00667e-06	9.58339e-07	1.12441e-06	5.99494e-07	
2.96406e-67	1.37169e-12	1.77886e-09	2.56104e-08	6.58034e-08	1.5631e-07	3.07887e-07	3.18125e-07	5.60063e-07	5.57666e-07	6.13303e-07	6.6545e-07	7.65802e-07	7.60188e-07	8.44819e-07	7.56337e-07	9.67331e-07	9.38347e-07	9.78695e-07	1.07312e-06	5.67729e-07	
4.5464e-68	1.59358e-12	1.42421e-09	1.21351e-08	5.08668e-08	1.47172e-07	3.41805e-07	2.95817e-07	5.04348e-07	5.14974e-07	5.73626e-07	6.15523e-07	7.1758e-07	7.08279e-07	7.83706e-07	7.33637e-07	9.38235e-07	8.79496e-07	1.10821e-06	1.04376e-06	5.51459e-07	
6.83732e-69	1.61893e-12	8.79836e-10	9.09689e-09	4.47479e-08	1.30726e-07	2.40137e-07	2.73546e-07	4.60298e-07	4.80171e-07	5.48689e-07	5.71249e-07	6.73375e-07	6.54225e-07	7.43753e-07	7.12306e-07	9.07204e-07	8.2779e-07	9.80392e-07	1.00977e-06	5.56454e-07	
1.00911e-69	1.84325e-12	7.62142e-10	8.02595e-09	4.2162e-08	1.1434e-07	2.09056e-07	2.5106e-07	4.46446e-07	4.54761e-07	5.39466e-07	5.38778e-07	6.35851e-07	6.05455e-07	7.89467e-07	6.896e-07	8.80798e-07	7.80699e-07	8.2885e-07	9.41426e-07	6.30708e-07	
1.46285e-70	2.48205e-12	8.28286e-10	7.09861e-09	4.0986e-08	1.00129e-07	2.00353e-07	2.31154e-07	4.16937e-07	4.39738e-07	5.24709e-07	5.17413e-07	6.07375e-07	5.64681e-07	1.11643e-06	6.66913e-07	8.19348e-07	7.38309e-07	7.50764e-07	8.6241e-07	8.9475e-07	
2.08461e-71	2.82258e-12	8.38245e-10	6.38054e-09	4.02604e-08	9.11071e-08	1.83312e-07	2.1476e-07	3.7946e-07	4.48328e-07	4.88765e-07	5.04929e-07	5.77932e-07	5.30356e-07	7.17706e-07	6.50467e-07	7.53267e-07	7.01755e-07	6.78108e-07	7.875e-07	6.63228e-07	
2.92248e-72	2.12228e-12	8.76749e-10	5.98337e-09	3.25375e-08	8.69829e-08	1.6149e-07	2.0161e-07	3.66487e-07	4.83633e-07	4.50938e-07	4.88961e-07	5.39704e-07	5.0188e-07	5.60001e-07	6.80134e-07	7.0357e-07	6.70173e-07	6.11804e-07	7.19327e-07	4.47168e-07	
4.03367e-73	1.08671e-12	1.15714e-09	5.7057e-09	2.58225e-08	8.51957e-08	1.41486e-07	1.91648e-07	3.79312e-07	4.61118e-07	4.07413e-07	4.6123e-07	5.03797e-07	4.81171e-07	4.94605e-07	1.03185e-06	6.4395e-07	6.40208e-07	5.57821e-07	6.58325e-07	3.64879e-07	
5.48499e-74	4.40668e-13	2.13295e-09	5.56696e-09	2.24367e-08	8.13903e-08	1.2519e-07	1.85697e-07	4.14147e-07	4.12798e-07	3.58738e-07	4.41613e-07	4.7051e-07	4.77638e-07	4.49452e-07	7.4345e-07	5.81838e-07	6.09102e-07	5.13991e-07	6.03965e-07	3.19389e-07	
7.353e-75	1.61808e-13	3.82209e-09	5.66618e-09	2.04984e-08	7.61077e-08	1.1552e-07	1.85514e-07	4.01558e-07	3.24119e-07	3.15575e-07	4.62871e-07	4.41502e-07	5.56521e-07	4.1134e-07	5.82408e-07	5.29151e-07	5.7632e-07	4.76938e-07	5.55411e-07	2.87229e-07	
9.72391e-76	5.93218e-14	2.29981e-09	5.91708e-09	1.87297e-08	7.12665e-08	1.13123e-07	1.88343e-07	3.3679e-07	2.67749e-07	2.79676e-07	1.2066e-06	4.17174e-07	2.01868e-06	3.76977e-07	5.58663e-07	4.84084e-07	5.41887e-07	4.43637e-07	5.11663e-07	2.61439e-07	
1.2693e-76	2.38797e-14	1.29596e-09	6.16375e-09	1.66316e-08	6.7845e-08	1.14633e-07	1.79604e-07	3.01587e-07	2.33021e-07	2.4914e-07	6.24722e-07	3.95184e-07	6.04697e-07	3.45659e-07	5.60064e-07	4.43102e-07	5.05834e-07	4.11881e-07	4.71773e-07	2.39376e-07	
1.63636e-77	1.14836e-14	6.75527e-10	6.21128e-09	1.43759e-08	6.57723e-08	1.04507e-07	1.50977e-07	2.66644e-07	2.06612e-07	2.22441e-07	3.66275e-07	3.6727e-07	3.904e-07	3.17165e-07	5.21706e-07	4.04525e-07	4.67117e-07	3.8105e-07	4.35072e-07	2.19868e-07	
2.08459e-78	6.4874e-15	3.40442e-10	5.01597e-09	1.21928e-08	5.10601e-08	8.21131e-08	1.21533e-07	2.23099e-07	1.83889e-07	1.98671e-07	2.9479e-07	3.25788e-07	3.28975e-07	2.91183e-07	4.42935e-07	3.68654e-07	4.24871e-07	3.51751e-07	4.01191e-07	2.02347e-07	
2.62549e-79	3.83578e-15	1.74876e-10	3.2714e-09	1.01791e-08	3.60877e-08	6.46164e-08	1.00867e-07	1.81841e-07	1.63291e-07	1.7741e-07	2.47642e-07	2.83545e-07	2.89361e-07	2.67381e-07	3.73322e-07	3.36158e-07	3.82207e-07	3.24625e-07	3.69945e-07	1.865e-07	
3.27084e-80	2.15315e-15	9.37198e-11	2.07715e-09	8.39049e-09	2.72977e-08	5.24393e-08	8.58322e-08	1.49144e-07	1.44674e-07	1.5851e-07	2.12611e-07	2.48878e-07	2.57573e-07	2.45528e-07	3.22909e-07	3.0708e-07	3.43452e-07	2.99846e-07	3.41208e-07	1.72122e-07	
4.03242e-81	1.1033e-15	5.25149e-11	1.37328e-09	6.85824e-09	2.16776e-08	4.35681e-08	7.40581e-08	1.24796e-07	1.28174e-07	1.41838e-07	1.85494e-07	2.21033e-07	2.30773e-07	2.25485e-07	2.85079e-07	2.81064e-07	3.10035e-07	2.77277e-07	3.14852e-07	1.59052e-07	
4.92176e-82	5.14461e-16	3.05784e-11	9.46097e-10	5.58146e-09	1.76773e-08	3.67866e-08	6.44199e-08	1.06352e-07	1.13736e-07	1.27185e-07	1.63737e-07	1.9803e-07	2.07828e-07	2.07149e-07	2.54951e-07	2.57701e-07	2.81412e-07	2.56687e-07	2.90729e-07	1.47151e-07	
5.94981e-83	2.20789e-16	1.83578e-11	6.72339e-10	4.53618e-09	1.46388e-08	3.14073e-08	5.63355e-08	9.18724e-08	1.01157e-07	1.14307e-07	1.45755e-07	1.785e-07	1.87979e-07	1.90409e-07	2.29926e-07	2.36641e-07	2.56641e-07	2.37852e-07	2.68675e-07	1.36295e-07	
7.12666e-84	8.85475e-17	1.12836e-11	4.88599e-10	3.6888e-09	1.22419e-08	2.70247e-08	4.94573e-08	8.0143e-08	9.01906e-08	1.0296e-07	1.30555e-07	1.61593e-07	1.70643e-07	1.75142e-07	2.08567e-07	2.17602e-07	2.34929e-07	2.2058e-07	2.48515e-07	1.26373e-07	
8.46119e-85	3.36832e-17	7.06129e-12	3.60901e-10	3.00494e-09	1.03071e-08	2.33856e-08	4.35518e-08	7.04144e-08	8.06061e-08	9.29287e-08	1.17492e-07	1.46762e-07	1.55373e-07	1.61221e-07	1.90006e-07	2.00351e-07	2.15689e-07	2.0471e-07	2.30077e-07	1.17288e-07	
9.96081e-86	1.23145e-17	4.48047e-12	2.69835e-10	2.45367e-09	8.72193e-09	2.03227e-08	3.84486e-08	6.22035e-08	7.22007e-08	8.40303e-08	1.06125e-07	1.33633e-07	1.41825e-07	1.48523e-07	1.73673e-07	1.84688e-07	1.98492e-07	1.90106e-07	2.13198e-07	1.08953e-07	
1.16312e-86	4.37623e-18	2.87375e-12	2.03639e-10	2.00884e-09	7.40977e-09	1.77195e-08	3.40171e-08	5.51836e-08	6.48035e-08	7.61103e-08	9.61409e-08	1.21932e-07	1.29732e-07	1.36931e-07	1.59168e-07	1.70442e-07	1.83018e-07	1.76651e-07	1.97727e-07	1.01293e-07	
1.34759e-87	1.52625e-18	1.85911e-12	1.54818e-10	1.64914e-09	6.31542e-09	1.54908e-08	3.01537e-08	4.91229e-08	5.82719e-08	6.90398e-08	8.73075e-08	1.11451e-07	1.18885e-07	1.2634e-07	1.46195e-07	1.57461e-07	1.69022e-07	1.64242e-07	1.83528e-07	9.42419e-08	
1.54963e-88	5.26629e-19	1.21116e-12	1.18406e-10	1.35746e-09	5.39743e-09	1.35724e-08	2.67745e-08	4.38505e-08	5.24867e-08	6.27103e-08	7.94473e-08	1.02025e-07	1.09114e-07	1.16654e-07	1.34527e-07	1.45613e-07	1.56311e-07	1.52786e-07	1.70478e-07	8.77421e-08	
1.76916e-89	1.80993e-19	7.93644e-13	9.10076e-11	1.12023e-09	4.62378e-09	1.19139e-08	2.38105e-08	3.92363e-08	4.73481e-08	5.70303e-08	7.24206e-08	9.35205e-08	1.00283e-07	1.07787e-07	1.23986e-07	1.34782e-07	1.44727e-07	1.42203e-07	1.58469e-07	8.17421e-08	
2.00582e-90	6.22952e-20	5.22637e-13	7.02436e-11	9.26682e-10	3.96925e-09	1.04752e-08	2.12041e-08	3.51783e-08	4.27723e-08	5.19222e-08	6.61152e-08	8.58262e-08	9.22773e-08	9.96614e-08	1.14426e-07	1.24865e-07	1.34142e-07	1.32418e-07	1.47404e-07	7.61966e-08	
2.25901e-91	2.15606e-20	3.4565e-13	5.44139e-11	7.68305e-10	3.41366e-09	9.22364e-09	1.89072e-08	3.15951e-08	3.86881e-08	4.73193e-08	6.0439e-08	7.88487e-08	8.50025e-08	9.22077e-08	1.05729e-07	1.15771e-07	1.24447e-07	1.23365e-07	1.37197e-07	7.10657e-08	
2.52789e-92	7.5246e-21	2.29463e-13	4.22856e-11	6.38332e-10	2.94071e-09	8.13221e-09	1.6879e-08	2.84206e-08	3.5035e-08	4.31644e-08	5.53153e-08	7.25083e-08	7.83772e-08	8.5364e-08	9.77975e-08	1.07421e-07	1.15549e-07	1.14982e-07	1.27771e-07	6.63134e-08	
2.81134e-93	2.652e-21	1.52845e-13	3.29533e-11	5.31381e-10	2.53708e-09	7.17845e-09	1.50848e-08	2.55999e-08	3.17613e-08	3.94081e-08	5.06797e-08	6.67366e-08	7.23321e-08	7.90746e-08	9.05463e-08	9.9744e-08	1.07369e-07	1.07216e-07	1.19057e-07	6.19078e-08	
3.10803e-94	9.44267e-22	1.0212e-13	2.57457e-11	4.43151e-10	2.19185e-09	6.34346e-09	1.34951e-08	2.30874e-08	2.88224e-08	3.60072e-08	4.64771e-08	6.14742e-08	6.68072e-08	7.32896e-08	8.39044e-08	9.2677e-08	9.98382e-08	1.00015e-07	1.10994e-07	5.78202e-08	
3.41641e-95	3.39499e-22	6.84183e-14	2.01606e-11	3.70193e-10	1.89596e-09	5.61124e-09	1.20843e-08	2.08446e-08	2.61798e-08	3.2924e-08	4.26602e-08	5.66693e-08	6.17501e-08	6.7964e-08	7.78099e-08	8.61643e-08	9.28948e-08	9.33356e-08	1.03527e-07	5.40247e-08	
3.73471e-96	1.23124e-22	4.59555e-14	1.58202e-11	3.09732e-10	1.64191e-09	4.96819e-09	1.08305e-08	1.88387e-08	2.38001e-08	3.01257e-08	3.91881e-08	5.22765e-08	5.71151e-08	6.30575e-08	7.22094e-08	8.01561e-08	8.64857e-08	8.71354e-08	9.66065e-08	5.0498e-08	
4.06101e-97	4.49807e-23	3.094e-14	1.2438e-11	2.59526e-10	1.42342e-09	4.40269e-09	9.71492e-09	1.70416e-08	2.16543e-08	2.7583e-08	3.60253e-08	4.82558e-08	5.28617e-08	5.85335e-08	6.70557e-08	7.46078e-08	8.05635e-08	8.1377e-08	9.01875e-08	4.72188e-08	
4.39323e-98	1.653e-23	2.08759e-14	9.79624e-12	2.17756e-10	1.23522e-09	3.90476e-09	8.72104e-09	1.5429e-08	1.97169e-08	2.52702e-08	3.31403e-08	4.45716e-08	4.89543e-08	5.43593e-08	6.23075e-08	6.94796e-08	7.50856e-08	7.6026e-08	8.42296e-08	4.4168e-08	
4.72919e-99	6.10267e-24	1.4114e-14	7.72825e-12	1.82944e-10	1.0729e-09	3.46581e-09	7.8346e-09	1.39802e-08	1.79656e-08	2.31646e-08	3.05058e-08	4.11925e-08	4.5361e-08	5.0505e-08	5.7928e-08	6.47356e-08	7.00143e-08	7.10509e-08	7.8696e-08	4.1328e-08	
5.0666e-100	2.26089e-24	9.56032e-15	6.10614e-12	1.53882e-10	9.32706e-10	3.07845e-09	7.04315e-09	1.26767e-08	1.63808e-08	2.1246e-08	2.80974e-08	3.80903e-08	4.20536e-08	4.69439e-08	5.38846e-08	6.03435e-08	6.53154e-08	6.64232e-08	7.35534e-08	3.86829e-08	
5.40315e-101	8.39781e-25	6.48727e-15	4.8314e-12	1.29584e-10	8.11489e-10	2.73626e-09	6.33582e-09	1.15026e-08	1.49453e-08	1.94963e-08	2.58936e-08	3.52398e-08	3.90067e-08	4.36516e-08	5.0148e-08	5.62741e-08	6.09583e-08	6.21164e-08	6.87712e-08	3.6218e-08	
5.7365e-102	3.12532e-25	4.40931e-15	3.82789e-12	1.0924e-10	7.06562e-10	2.4337e-09	5.70307e-09	1.0444e-08	1.36437e-08	1.78994e-08	2.38752e-08	3.26186e-08	3.61974e-08	4.0606e-08	4.66921e-08	5.2501e-08	5.69152e-08	5.81066e-08	6.4322e-08	3.39201e-08	
6.06433e-103	1.16485e-25	3.00162e-15	3.03664e-12	9.21835e-11	6.15642e-10	2.16594e-09	5.13655e-09	9.48864e-09	1.24624e-08	1.64409e-08	2.20249e-08	3.02064e-08	3.36054e-08	3.77869e-08	4.34934e-08	4.90005e-08	5.3161e-08	5.43715e-08	6.01802e-08	3.17769e-08	
6.38437e-104	4.34685e-26	2.04634e-15	2.41181e-12	7.78648e-11	5.36786e-10	1.92877e-09	4.62891e-09	8.62557e-09	1.13895e-08	1.5108e-08	2.03275e-08	2.79849e-08	3.12122e-08	3.51761e-08	4.05305e-08	4.57506e-08	4.96728e-08	5.08909e-08	5.63228e-08	2.97771e-08	
6.69443e-105	1.62388e-26	1.39701e-15	1.91769e-12	6.58301e-11	4.6833e-10	1.71854e-09	4.17367e-09	7.84525e-09	1.04143e-08	1.3889e-08	1.87693e-08	2.59378e-08	2.9001e-08	3.2757e-08	3.77843e-08	4.27318e-08	4.643e-08	4.76462e-08	5.27286e-08	2.79104e-08	
6.99242e-106	6.07299e-27	9.54967e-16	1.52641e-12	5.57037e-11	4.08853e-10	1.53205e-09	3.76513e-09	7.13919e-09	9.52717e-09	1.27735e-08	1.73378e-08	2.40501e-08	2.69568e-08	3.05143e-08	3.52372e-08	3.99259e-08	4.34135e-08	4.46202e-08	4.93781e-08	2.61673e-08	
7.27638e-107	2.27382e-27	6.53604e-16	1.2162e-12	4.7174e-11	3.57136e-10	1.36649e-09	3.39823e-09	6.49984e-09	8.71961e-09	1.17521e-08	1.60219e-08	2.23084e-08	2.50658e-08	2.84343e-08	3.28735e-08	3.73167e-08	4.06061e-08	4.1797e-08	4.62534e-08	2.4539e-08	
