11.236,7.27639,0,-1.95837,-13.8567,4.96773,0,255,0
9.27758,-6.58035,4.96773,-1.79173,-0.70087,0.616022,255,0,0
7.48585,-7.28122,5.58375,-3.21257,-0.926421,1.06555,0,0,255
4.27328,-8.20764,6.6493,-13.7546,9.24318,9.53071,255,0,0
-9.48135,1.03554,16.18,-3.6749,2.15427,3.82149,0,0,255